[{
  "_id": {
    "$oid": "624d7f4bde40b834a0c84f40"
  },
  "layoutName": "Гадание на ближайшее будущее",
  "layoutDescription": "Таро расклад позволит узнать что ждет вас в будущем, сделать выводы и принять верное решение. В раскладе присутствуют все 78 карт, каждая из которых может дать ответ на вашу ситуацию в ближайшем будущем.",
  "cards": 8,
  "arcana": "Все",
  "advice": "Внимательно сосредоточьтесь на текущей или будущей неделе, а затем нажимайте на карты. Внизу будет представлена интерпретация вашего расклада."
},{
  "_id": {
    "$oid": "624d8019de40b834a0c84f41"
  },
  "layoutName": "Гадание на неделю",
  "layoutDescription": "Неделя – время, когда может случиться множество событий. Иногда хочется знать, что именно произойдет и получить какой-то практический совет, и в этом поможет гадание на Таро на неделю.",
  "cards": 1,
  "arcana": "Все",
  "advice": "Внимательно сосредоточьтесь на текущей или будущей неделе, а затем нажмите на карту. Внизу будет представлена интерпретация вашего расклада."
},{
  "_id": {
    "$oid": "624d8041de40b834a0c84f42"
  },
  "layoutName": "Гадание на каждый день недели",
  "layoutDescription": "Неделя – время, когда может случиться множество событий. Иногда хочется знать, что именно произойдет и получить какой-то практический совет, и в этом поможет гадание на Таро на неделю.",
  "cards": 7,
  "arcana": "Старший",
  "advice": "Внимательно сосредоточьтесь на текущей или будущей неделе, а затем нажимайте на карты. Внизу будет представлена интерпретация вашего расклада."
},{
  "_id": {
    "$oid": "624d8119de40b834a0c84f43"
  },
  "layoutName": "Что ждет меня сегодня?",
  "layoutDescription": "Вас разбирает любопытство в предвкушении сегодняшнего дня? Тогда гадание «Что меня ждет сегодня» раскроет перед вами ответы на очень многие вопросы.",
  "cards": 1,
  "arcana": "Старший",
  "advice": "Внимательно сосредоточьтесь на сегодняшнем дне, а затем нажмите на карту. Внизу будет представлена интерпретация вашего расклада."
},{
  "_id": {
    "$oid": "624d8168de40b834a0c84f44"
  },
  "layoutName": "Гадание на любовь и отношения",
  "layoutDescription": "При помощи гаданий на картах Таро можно узнать, что ждет вас и вашу половинку в любви и отношениях. Получив те или иные советы, вы сможете сделать выводы и принять верное решение для улучшения ваших отношений. Воспользуйтесь бесплатным онлайн гаданием Таро на любовь мужчины и женщины, и сохраните гармонию ваших сердец",
  "cards": 5,
  "arcana": "Старший",
  "advice": "Внимательно сосредоточьтесь на своем партнере, а затем нажимайте на карты. Внизу будет представлена интерпретация вашего расклада."
},{
  "_id": {
    "$oid": "624d8197de40b834a0c84f45"
  },
  "layoutName": "Гадание на ситуацию",
  "layoutDescription": "При помощи гаданий на картах Таро, можно узнать овтет на свою ситуацию или важный вопрос. Получив свой расклад с подробной трактовкой, вы сможете сделать выводы и принять верное решение.",
  "cards": 3,
  "arcana": "Старший",
  "advice": "Внимательно сосредоточьтесь на вашей ситуации или вопросе который сильно волнует вас, затем по очереди жмите на каждую колоду карт. Внизу будет представлена интерпретация вашего расклада."
},{
  "_id": {
    "$oid": "624d81bede40b834a0c84f46"
  },
  "layoutName": "Гадание на ситуацию",
  "layoutDescription": "Благодаря Таро раскладу вы сможете узнать исход важной для вас ситуации. Это может быть любой вопрос который сильно волнует вас. Получив свою карту (аркан), вы сможете узнать ответ на свой вопрос и сделать выводы.",
  "cards": 1,
  "arcana": "Старший",
  "advice": "Внимательно сосредоточьтесь на вашей ситуации или вопросе, затем выбирайте карту. Внизу будет представлена интерпретация вашего расклада."
}]