{
  "name": "cards",
  "base": "PersistedModel",
  "idInjection": true,
  "options": {
    "validateUpsert": true
  },
  "properties": {
    "name": {
      "type": "string",
      "required": true
    },
    "nameeng": {
      "type": "string",
      "required": true
    },
    "text": {
      "type": "string",
      "required": true
    },
    "texteng": {
      "type": "string",
      "required": true
    },
    "meaning": {
      "type": "string",
      "required": true
    },
    "meaningeng": {
      "type": "string",
      "required": true
    },
    "reverse": {
      "type": "string",
      "required": true
    },
    "reverseeng": {
      "type": "string",
      "required": true
    },
    "arcana": {
      "type": "string",
      "required": true
    },
    "suit": {
      "type": "string",
      "required": true
    },
    "hash": {
      "type": "string",
      "required": true
    },
    "num": {
      "type": "number",
      "required": false
    }
  },
  "validations": [],
  "relations": {},
  "acls": [],
  "methods": {}
}
