{
  "name": "page",
  "base": "PersistedModel",
  "idInjection": true,
  "options": {
    "validateUpsert": true
  },
  "properties": {
    "title": {
      "type": "string",
      "required": true
    },
    "text": {
      "type": "string",
      "required": true
    },
    "picture": {
      "type": "string",
      "required": true
    },
    "author": {
      "type": "string"
    },
    "tags": {
      "type": "string"
    },
    "description": {
      "type": "string"
    },
    "active": {
      "type": "boolean"
    }
  },
  "validations": [],
  "relations": {},
  "acls": [],
  "methods": {}
}
