{
  "name": "quote",
  "base": "PersistedModel",
  "idInjection": true,
  "options": {
    "validateUpsert": true
  },
  "properties": {
    "author": {
      "type": "string",
      "required": true
    },
    "text": {
      "type": "string",
      "required": true
    },
    "picture": {
      "type": "string"
    }
  },
  "validations": [],
  "relations": {},
  "acls": [],
  "methods": {}
}
